Cluserting Premier League and NFL Teams
…
save(nfl19_20, file='./data/nfl19_20.Rdata')
nfl19_20

## # A tibble: 32 x 3
##    Team     GF    GA
##    <chr> <dbl> <dbl>
##  1 BUF     314   259
##  2 MIA     306   494
##  3 NE      420   225
##  4 NYJ     276   359
##  5 BAL     531   282
##  6 CIN     279   420
##  7 CLE     335   393
##  8 PIT     289   303
##  9 HOU     378   385
## 10 IND     361   373
## #  with 22 more rows
…
nflGFmean = mean(nfl19_20$GF)
nflGFvar = var(nfl19_20$GF)

nflGAmean = mean(nfl19_20$GA)
nflGAvar = var(nfl19_20$GA)

nflScores = nfl19_20%>%
  mutate('Attack'=(GF-nflGFmean)/sqrt(nflGFvar), 'Defence'= -1*(GA-nflGAmean)/sqrt(nflGAvar), 'League'='NFL')%>%
  select(Team, Attack, Defence, League)

Scores = bind_rows(nflScores, premScores)
save(Scores, file='./data/scores.Rdata')
Scores

## # A tibble: 52 x 4
##    Team   Attack Defence League
##    <chr>   <dbl>   <dbl> <chr> 
##  1 BUF   -0.756   1.62   NFL   
##  2 MIA   -0.875  -1.97   NFL   
##  3 NE     0.815   2.14   NFL   
##  4 NYJ   -1.32    0.0919 NFL   
##  5 BAL    2.46    1.27   NFL   
##  6 CIN   -1.27   -0.842  NFL   
##  7 CLE   -0.445  -0.429  NFL   
##  8 PIT   -1.13    0.949  NFL   
##  9 HOU    0.193  -0.306  NFL   
## 10 IND   -0.0593 -0.122  NFL   
## #  with 42 more rows
…
